Interacting with the Cold Spring Harbour Laboratory API • medrxivr
…
Accessing the raw API data

Both functions contain a clean argument with is set to TRUE by default. This is to ensure that the datasets returned by the mx_api_*() functions can immediately be passed to mx_search(). However, there may be occasions where this is not required, and so setting this argument to FALSE will return the raw data provided by the API endpoints. For example:

mx_api_content(to_date = "2019-07-01", clean = FALSE)
#> Total number of records found: 32
#> # A tibble: 32 x 13
#>    doi   title authors author_correspo… author_correspo… date  version type 
#>    <chr> <chr> <chr>   <chr>            <chr>            <chr> <chr>   <chr>
#>  1 10.1… Mole… Daniel… Robert Castelo   "Department of … 2019… 1       ""   
#>  2 10.1… Croh… Orna G… Orna G Ehrlich   "Crohn\\'s & Co… 2019… 1       ""   
#>  3 10.1… Upda… Joshua… Joshua D Wallach "Yale School of… 2019… 1       ""   
#>  4 10.1… Pred… Oliver… Olivera Stojano… "Institute of C… 2019… 1       ""   
#>  5 10.1… Pros… Nathan… Nathan Brajer    "Duke Universit… 2019… 1       ""   
#>  6 10.1… Tren… Brian … Ben Goldacre     "University of … 2019… 1       ""   
#>  7 10.1… 18F-… Nicola… Nicolas Nicastro "University of … 2019… 1       ""   
#>  8 10.1… Perc… Sistan… Lena H Ting      "Emory Universi… 2019… 1       ""   
#>  9 10.1… Prox… Tesfa … Tesfa Dejenie H… "Department of … 2019… 1       ""   
#> 10 10.1… Tran… Alexan… Alexandre Vivot  "APHP"           2019… 1       ""   
#> # … with 22 more rows, and 5 more variables: license <chr>, category <chr>,
#> #   abstract <chr>, published <chr>, server <chr>
…
